module example.com/m/v

go 1.19

require (
	github.com/andybalholm/brotli v1.0.4 // indirect
	github.com/fasthttp/websocket v1.5.0 // indirect
	github.com/gofiber/fiber/v2 v2.40.1 // indirect
	github.com/gofiber/websocket/v2 v2.1.2 // indirect
	github.com/klauspost/compress v1.15.12 // indirect
	github.com/mattn/go-colorable v0.1.13 // indirect
	github.com/mattn/go-isatty v0.0.16 // indirect
	github.com/mattn/go-runewidth v0.0.14 // indirect
	github.com/rivo/uniseg v0.4.3 // indirect
	github.com/savsgio/gotils v0.0.0-20220530130905-52f3993e8d6d // indirect
	github.com/valyala/bytebufferpool v1.0.0 // indirect
	github.com/valyala/fasthttp v1.43.0 // indirect
	github.com/valyala/tcplisten v1.0.0 // indirect
	golang.org/x/sys v0.2.0 // indirect
)
